{
  "name": "icons",
  "css_prefix_text": "icon-",
  "css_use_suffix": false,
  "hinting": true,
  "units_per_em": 1000,
  "ascent": 850,
  "glyphs": [
    {
      "uid": "9bd60140934a1eb9236fd7a8ab1ff6ba",
      "css": "spin4",
      "code": 59444,
      "src": "fontelico"
    },
    {
      "uid": "f3dc2d6d8fe9cf9ebff84dc260888cdf",
      "css": "heart-empty",
      "code": 59392,
      "src": "fontawesome"
    },
    {
      "uid": "ccc2329632396dc096bb638d4b46fb98",
      "css": "mail-alt",
      "code": 61664,
      "src": "fontawesome"
    },
    {
      "uid": "8b80d36d4ef43889db10bc1f0dc9a862",
      "css": "user",
      "code": 59393,
      "src": "fontawesome"
    },
    {
      "uid": "ead4c82d04d7758db0f076584893a8c1",
      "css": "calendar-empty",
      "code": 61747,
      "src": "fontawesome"
    },
    {
      "uid": "bc64550dd022ce21604f97309b346cea",
      "css": "cog",
      "code": 59394,
      "src": "entypo"
    },
    {
      "uid": "884cfc3e6e2d456dd2a2ca0dbb9e6337",
      "css": "left-open-big",
      "code": 59395,
      "src": "entypo"
    },
    {
      "uid": "004882ab2d5c418c5b2060e80596279b",
      "css": "right-open-big",
      "code": 59396,
      "src": "entypo"
    },
    {
      "uid": "c77fd2fd065b5fe16d6f2b41e190b266",
      "css": "pencil",
      "code": 59397,
      "src": "entypo"
    },
    {
      "uid": "8663320a860b00f26e94d3d15c9ba99a",
      "css": "clock",
      "code": 59398,
      "src": "entypo"
    },
    {
      "uid": "94ca559902b8930f0b267a588ffddb0b",
      "css": "instagram",
      "code": 59399,
      "src": "elusive"
    },
    {
      "uid": "6cc7af3e5b55720bcb6ef68372ce24be",
      "css": "facebook-official",
      "code": 62000,
      "src": "fontawesome"
    },
    {
      "uid": "2cfb3f2b46b34a1790aec0aa846297b6",
      "css": "menu",
      "code": 59400,
      "src": "entypo"
    }
  ]
}